\beamer@endinputifotherversion {3.10pt}
\select@language {french}
\beamer@sectionintoc {1}{D\IeC {\'e}finition}{2}{0}{1}
\beamer@sectionintoc {2}{Buts}{3}{0}{2}
\beamer@sectionintoc {3}{\IeC {\'E}thique}{4}{0}{3}
\beamer@sectionintoc {4}{Risques}{5}{0}{4}
\beamer@sectionintoc {5}{Incertitude}{6}{0}{5}
\beamer@sectionintoc {6}{Mais BT}{7}{0}{6}
\beamer@sectionintoc {7}{Bibliographie}{8}{0}{7}
