\relax 
\providecommand\HyperFirstAtBeginDocument{\AtBeginDocument}
\HyperFirstAtBeginDocument{\ifx\hyper@anchor\@undefined
\global\let\oldcontentsline\contentsline
\gdef\contentsline#1#2#3#4{\oldcontentsline{#1}{#2}{#3}}
\global\let\oldnewlabel\newlabel
\gdef\newlabel#1#2{\newlabelxx{#1}#2}
\gdef\newlabelxx#1#2#3#4#5#6{\oldnewlabel{#1}{{#2}{#3}}}
\AtEndDocument{\ifx\hyper@anchor\@undefined
\let\contentsline\oldcontentsline
\let\newlabel\oldnewlabel
\fi}
\fi}
\global\let\hyper@last\relax 
\gdef\HyperFirstAtBeginDocument#1{#1}
\providecommand\HyField@AuxAddToFields[1]{}
\catcode`:\active
\catcode`;\active
\catcode`!\active
\catcode`?\active
\@writefile{toc}{\beamer@endinputifotherversion {3.10pt}}
\@writefile{nav}{\beamer@endinputifotherversion {3.10pt}}
\select@language{french}
\@writefile{toc}{\select@language{french}}
\@writefile{lof}{\select@language{french}}
\@writefile{lot}{\select@language{french}}
\@writefile{nav}{\headcommand {\slideentry {0}{0}{1}{1/1}{}{0}}}
\@writefile{nav}{\headcommand {\beamer@framepages {1}{1}}}
\citation{wiki}
\@writefile{toc}{\beamer@sectionintoc {1}{D\IeC {\'e}finition}{2}{0}{1}}
\@writefile{nav}{\headcommand {\sectionentry {1}{D\IeC {\'e}finition}{2}{D\IeC {\'e}finition}{0}}}
\@writefile{nav}{\headcommand {\beamer@sectionpages {1}{1}}}
\@writefile{nav}{\headcommand {\beamer@subsectionpages {1}{1}}}
\@writefile{nav}{\headcommand {\slideentry {1}{0}{2}{2/2}{}{0}}}
\@writefile{nav}{\headcommand {\beamer@framepages {2}{2}}}
\@writefile{toc}{\beamer@sectionintoc {2}{Buts}{3}{0}{2}}
\@writefile{nav}{\headcommand {\sectionentry {2}{Buts}{3}{Buts}{0}}}
\@writefile{nav}{\headcommand {\beamer@sectionpages {2}{2}}}
\@writefile{nav}{\headcommand {\beamer@subsectionpages {2}{2}}}
\newlabel{fig:gun}{{3}{3}{Buts\relax }{Doc-Start}{}}
\@writefile{snm}{\beamer@slide {fig:gun}{3}}
\@writefile{nav}{\headcommand {\slideentry {2}{0}{3}{3/3}{}{0}}}
\@writefile{nav}{\headcommand {\beamer@framepages {3}{3}}}
\@writefile{toc}{\beamer@sectionintoc {3}{\IeC {\'E}thique}{4}{0}{3}}
\@writefile{nav}{\headcommand {\sectionentry {3}{\IeC {\'E}thique}{4}{\IeC {\'E}thique}{0}}}
\@writefile{nav}{\headcommand {\beamer@sectionpages {3}{3}}}
\@writefile{nav}{\headcommand {\beamer@subsectionpages {3}{3}}}
\newlabel{fig:dieu}{{4}{4}{Éthique\relax }{Doc-Start}{}}
\@writefile{snm}{\beamer@slide {fig:dieu}{4}}
\@writefile{nav}{\headcommand {\slideentry {3}{0}{4}{4/4}{}{0}}}
\@writefile{nav}{\headcommand {\beamer@framepages {4}{4}}}
\@writefile{toc}{\beamer@sectionintoc {4}{Risques}{5}{0}{4}}
\@writefile{nav}{\headcommand {\sectionentry {4}{Risques}{5}{Risques}{0}}}
\@writefile{nav}{\headcommand {\beamer@sectionpages {4}{4}}}
\@writefile{nav}{\headcommand {\beamer@subsectionpages {4}{4}}}
\newlabel{fig:g20}{{5}{5}{Risques\relax }{Doc-Start}{}}
\@writefile{snm}{\beamer@slide {fig:g20}{5}}
\@writefile{nav}{\headcommand {\slideentry {4}{0}{5}{5/5}{}{0}}}
\@writefile{nav}{\headcommand {\beamer@framepages {5}{5}}}
\@writefile{toc}{\beamer@sectionintoc {5}{Incertitude}{6}{0}{5}}
\@writefile{nav}{\headcommand {\sectionentry {5}{Incertitude}{6}{Incertitude}{0}}}
\@writefile{nav}{\headcommand {\beamer@sectionpages {5}{5}}}
\@writefile{nav}{\headcommand {\beamer@subsectionpages {5}{5}}}
\newlabel{fig:g20}{{6}{6}{Incertitude\relax }{Doc-Start}{}}
\@writefile{snm}{\beamer@slide {fig:g20}{6}}
\@writefile{nav}{\headcommand {\slideentry {5}{0}{6}{6/6}{}{0}}}
\@writefile{nav}{\headcommand {\beamer@framepages {6}{6}}}
\@writefile{toc}{\beamer@sectionintoc {6}{Mais BT}{7}{0}{6}}
\@writefile{nav}{\headcommand {\sectionentry {6}{Mais BT}{7}{Mais BT}{0}}}
\@writefile{nav}{\headcommand {\beamer@sectionpages {6}{6}}}
\@writefile{nav}{\headcommand {\beamer@subsectionpages {6}{6}}}
\@writefile{nav}{\headcommand {\slideentry {6}{0}{7}{7/7}{}{0}}}
\@writefile{nav}{\headcommand {\beamer@framepages {7}{7}}}
\citation{*}
\bibstyle{alpha}
\bibdata{biblio}
\@writefile{toc}{\beamer@sectionintoc {7}{Bibliographie}{8}{0}{7}}
\@writefile{nav}{\headcommand {\sectionentry {7}{Bibliographie}{8}{Bibliographie}{0}}}
\@writefile{nav}{\headcommand {\beamer@sectionpages {7}{7}}}
\@writefile{nav}{\headcommand {\beamer@subsectionpages {7}{7}}}
\@writefile{nav}{\headcommand {\slideentry {7}{0}{8}{8/8}{}{0}}}
\@writefile{nav}{\headcommand {\beamer@framepages {8}{8}}}
\@writefile{nav}{\headcommand {\beamer@partpages {1}{8}}}
\@writefile{nav}{\headcommand {\beamer@subsectionpages {8}{8}}}
\@writefile{nav}{\headcommand {\beamer@sectionpages {8}{8}}}
\@writefile{nav}{\headcommand {\beamer@documentpages {8}}}
\@writefile{nav}{\headcommand {\def \inserttotalframenumber {8}}}
