\relax 
\providecommand\HyperFirstAtBeginDocument{\AtBeginDocument}
\HyperFirstAtBeginDocument{\ifx\hyper@anchor\@undefined
\global\let\oldcontentsline\contentsline
\gdef\contentsline#1#2#3#4{\oldcontentsline{#1}{#2}{#3}}
\global\let\oldnewlabel\newlabel
\gdef\newlabel#1#2{\newlabelxx{#1}#2}
\gdef\newlabelxx#1#2#3#4#5#6{\oldnewlabel{#1}{{#2}{#3}}}
\AtEndDocument{\ifx\hyper@anchor\@undefined
\let\contentsline\oldcontentsline
\let\newlabel\oldnewlabel
\fi}
\fi}
\global\let\hyper@last\relax 
\gdef\HyperFirstAtBeginDocument#1{#1}
\providecommand\HyField@AuxAddToFields[1]{}
\@input{content.aux}
\citation{*}
\bibstyle{alpha}
\bibdata{biblio}
\bibcite{comstock2010ethics}{Com10}
\bibcite{we}{DD03}
\bibcite{james2012isaaa}{Jam12}
\bibcite{llaguno2007genetically}{Lla07}
\bibcite{o2005effects}{OGBM05}
\bibcite{polkinghorne2000ethical}{Pol00}
\bibcite{wiki}{wik13}
\newlabel{LastPage}{{}{I}{}{page.I}{}}
\xdef\lastpage@lastpage{I}
\xdef\lastpage@lastpageHy{I}
