This is BibTeX, Version 0.99d (TeX Live 2012/Arch Linux)
Capacity: max_strings=35307, hash_size=35307, hash_prime=30011
The top-level auxiliary file: master.aux
The style file: alpha.bst
Database file #1: biblio.bib
Warning--to sort, need author or key in wiki
Warning--to sort, need author or key in media
Warning--to sort, need author or key in wdebat
You've used 6 entries,
            2543 wiz_defined-function locations,
            585 strings with 5350 characters,
and the built_in function-call counts, 1596 in all, are:
= -- 156
> -- 49
< -- 1
+ -- 14
- -- 14
* -- 90
:= -- 235
add.period$ -- 15
call.type$ -- 6
change.case$ -- 29
chr.to.int$ -- 6
cite$ -- 12
duplicate$ -- 61
empty$ -- 157
format.name$ -- 18
if$ -- 348
int.to.chr$ -- 1
int.to.str$ -- 0
missing$ -- 0
newline$ -- 30
num.names$ -- 9
pop$ -- 51
preamble$ -- 1
purify$ -- 35
quote$ -- 0
skip$ -- 69
stack$ -- 0
substring$ -- 45
swap$ -- 6
text.length$ -- 1
text.prefix$ -- 1
top$ -- 0
type$ -- 48
warning$ -- 3
while$ -- 8
width$ -- 9
write$ -- 68
(There were 3 warnings)
