\relax 
\providecommand\hyper@newdestlabel[2]{}
\catcode`:\active
\catcode`;\active
\catcode`!\active
\catcode`?\active
\providecommand\HyperFirstAtBeginDocument{\AtBeginDocument}
\HyperFirstAtBeginDocument{\ifx\hyper@anchor\@undefined
\global\let\oldcontentsline\contentsline
\gdef\contentsline#1#2#3#4{\oldcontentsline{#1}{#2}{#3}}
\global\let\oldnewlabel\newlabel
\gdef\newlabel#1#2{\newlabelxx{#1}#2}
\gdef\newlabelxx#1#2#3#4#5#6{\oldnewlabel{#1}{{#2}{#3}}}
\AtEndDocument{\ifx\hyper@anchor\@undefined
\let\contentsline\oldcontentsline
\let\newlabel\oldnewlabel
\fi}
\fi}
\global\let\hyper@last\relax 
\gdef\HyperFirstAtBeginDocument#1{#1}
\providecommand\HyField@AuxAddToFields[1]{}
\providecommand\HyField@AuxAddToCoFields[2]{}
\select@language{french}
\@writefile{toc}{\select@language{french}}
\@writefile{lof}{\select@language{french}}
\@writefile{lot}{\select@language{french}}
\citation{wiki}
\citation{wdebat}
\citation{we}
\citation{parti}
\citation{3}
\bibstyle{alpha}
\bibdata{biblio}
\bibcite{3}{Bou03}
\bibcite{we}{DD03}
\bibcite{parti}{GR04}
\bibcite{wdebat}{wde13}
\bibcite{wiki}{wik13}
\@writefile{toc}{\contentsline {section}{\numberline {1}Commentaires}{I}{section.1}}
\newlabel{LastPage}{{}{I}{}{page.I}{}}
\xdef\lastpage@lastpage{I}
\xdef\lastpage@lastpageHy{I}
