# Fdb version 3
["pdflatex"] 1358161148 "comment.tex" "comment.pdf" "comment" 1358161148
  "/usr/share/texmf/web2c/texmf.cnf" 1328230870 29610 220a4f4cc0d915bf8fcbcb553dcee1ae ""
  "/var/lib/texmf/web2c/pdftex/pdflatex.fmt" 1358000781 6913478 19cafcc214f533a32b9fe7914e2e3b8a ""
  "comment.aux" 1358160190 1088 9da6f7c28e0a607ccd8e8357b809d5d4 ""
  "comment.tex" 1358161147 1721 4ae1bc2602a3863d4e4e0e72d67ee386 ""
  (generated)
  "comment.log"
  "comment.pdf"
