\beamer@endinputifotherversion {3.10pt}
\select@language {french}
\beamer@sectionintoc {1}{D\IeC {\'e}finition}{2}{0}{1}
\beamer@sectionintoc {2}{Buts}{3}{0}{2}
\beamer@sectionintoc {3}{\IeC {\'E}conomie}{4}{0}{3}
\beamer@sectionintoc {4}{\IeC {\'E}thique}{5}{0}{4}
\beamer@sectionintoc {5}{Politique}{6}{0}{5}
\beamer@sectionintoc {6}{Bibliographie}{7}{0}{6}
