# Fdb version 3
["bibtex rapport"] 1358161154 "rapport.aux" "rapport.bbl" "rapport" 1358161862
  "/usr/share/texmf-dist/bibtex/bst/base/alpha.bst" 1353286999 23907 a5f93555796fb564b924339521f10a7c ""
  "biblio.bib" 1357123133 2167 9995294b8eee8031386a2161f9ae8770 ""
  "rapport.aux" 1358161862 1286 02c76c3cc21daeecb2cf4e41ba1dac34 ""
  "rapport.bcf" 0 -1 0 ""
  (generated)
  "rapport.blg"
  "rapport.bbl"
["pdflatex"] 1358161862 "rapport.tex" "rapport.pdf" "rapport" 1358161862
  "/usr/share/texmf-dist/fonts/enc/dvips/cm-super/cm-super-t1.enc" 1353286984 2971 def0b6c1f0b107b3b936def894055589 ""
  "/usr/share/texmf-dist/fonts/map/fontname/texfonts.map" 1353286999 3287 e6b82fe08f5336d4d5ebc73fb1152e87 ""
  "/usr/share/texmf-dist/fonts/tfm/jknappen/ec/eccc1095.tfm" 1353286979 3072 1b1df026a15993ee98d265b49cf8d5f2 ""
  "/usr/share/texmf-dist/fonts/tfm/jknappen/ec/eccc1200.tfm" 1353286979 3072 1e3dcc56ea731d0f3645bbefe8c8608c ""
  "/usr/share/texmf-dist/fonts/tfm/jknappen/ec/eccc1728.tfm" 1353286979 3072 4c9b123826d0d85d40f16e82db0803b7 ""
  "/usr/share/texmf-dist/fonts/tfm/jknappen/ec/ecrm1095.tfm" 1353286979 3584 929cdff2b7a8c11bd4d49fd68cb0ae70 ""
  "/usr/share/texmf-dist/fonts/tfm/jknappen/ec/ecsi1200.tfm" 1353286979 3584 76f906ed3d5c5ef20a2687ba265e1ef9 ""
  "/usr/share/texmf-dist/fonts/tfm/jknappen/ec/ecss1095.tfm" 1353286979 3584 8ece407347b270c252c46fdfaef5a9ef ""
  "/usr/share/texmf-dist/fonts/tfm/jknappen/ec/ecss1200.tfm" 1353286979 3584 db562fb1d1c474cc55f0ce8a1dd94fe7 ""
  "/usr/share/texmf-dist/fonts/tfm/jknappen/ec/ecss1440.tfm" 1353286979 3584 861af00b50f6fb3ae4544a29a04a7577 ""
  "/usr/share/texmf-dist/fonts/tfm/jknappen/ec/ecss2074.tfm" 1353286979 3584 0c6605f42a2209a0c5ef3e49887097c0 ""
  "/usr/share/texmf-dist/fonts/tfm/jknappen/ec/ecsx1440.tfm" 1353286979 3584 9bd2baa3a21be3460ad52867ca0084f1 ""
  "/usr/share/texmf-dist/fonts/tfm/jknappen/ec/ecsx2074.tfm" 1353286979 3584 5ba4d7d245f2ced66081d269e8c9a284 ""
  "/usr/share/texmf-dist/fonts/tfm/jknappen/ec/ectt1095.tfm" 1353286979 1536 a988bfe554c1f79514bd46d13c3c64ce ""
  "/usr/share/texmf-dist/fonts/tfm/public/amsfonts/cmextra/cmex7.tfm" 1353286976 1004 54797486969f23fa377b128694d548df ""
  "/usr/share/texmf-dist/fonts/tfm/public/amsfonts/cmextra/cmex8.tfm" 1353286976 988 bdf658c3bfc2d96d3c8b02cfc1c94c20 ""
  "/usr/share/texmf-dist/fonts/tfm/public/amsfonts/symbols/msam10.tfm" 1353286976 916 f87d7c45f9c908e672703b83b72241a3 ""
  "/usr/share/texmf-dist/fonts/tfm/public/amsfonts/symbols/msam7.tfm" 1353286976 928 2dc8d444221b7a635bb58038579b861a ""
  "/usr/share/texmf-dist/fonts/tfm/public/amsfonts/symbols/msbm10.tfm" 1353286976 908 2921f8a10601f252058503cc6570e581 ""
  "/usr/share/texmf-dist/fonts/tfm/public/amsfonts/symbols/msbm7.tfm" 1353286976 940 228d6584342e91276bf566bcf9716b83 ""
  "/usr/share/texmf-dist/fonts/tfm/public/cm/cmex10.tfm" 1353286976 992 662f679a0b3d2d53c1b94050fdaa3f50 ""
  "/usr/share/texmf-dist/fonts/tfm/public/cm/cmmi10.tfm" 1353286976 1528 abec98dbc43e172678c11b3b9031252a ""
  "/usr/share/texmf-dist/fonts/tfm/public/cm/cmmi6.tfm" 1353286976 1512 f21f83efb36853c0b70002322c1ab3ad ""
  "/usr/share/texmf-dist/fonts/tfm/public/cm/cmmi8.tfm" 1353286976 1520 eccf95517727cb11801f4f1aee3a21b4 ""
  "/usr/share/texmf-dist/fonts/tfm/public/cm/cmr10.tfm" 1353286976 1296 45809c5a464d5f32c8f98ba97c1bb47f ""
  "/usr/share/texmf-dist/fonts/tfm/public/cm/cmr6.tfm" 1353286976 1300 b62933e007d01cfd073f79b963c01526 ""
  "/usr/share/texmf-dist/fonts/tfm/public/cm/cmr8.tfm" 1353286976 1292 21c1c5bfeaebccffdb478fd231a0997d ""
  "/usr/share/texmf-dist/fonts/tfm/public/cm/cmsy10.tfm" 1353286977 1124 6c73e740cf17375f03eec0ee63599741 ""
  "/usr/share/texmf-dist/fonts/tfm/public/cm/cmsy6.tfm" 1353286977 1116 933a60c408fc0a863a92debe84b2d294 ""
  "/usr/share/texmf-dist/fonts/tfm/public/cm/cmsy8.tfm" 1353286977 1120 8b7d695260f3cff42e636090a8002094 ""
  "/usr/share/texmf-dist/fonts/type1/public/cm-super/sfcc1200.pfb" 1353286983 108594 1a08a22405bc37650b977f219cc3597d ""
  "/usr/share/texmf-dist/fonts/type1/public/cm-super/sfcc1728.pfb" 1353286983 107203 e671936e3a8639d41d1d76852217c874 ""
  "/usr/share/texmf-dist/fonts/type1/public/cm-super/sfsi1200.pfb" 1353286983 104587 af18095d6ceabc726cee1b26fbfa2cd3 ""
  "/usr/share/texmf-dist/fonts/type1/public/cm-super/sfss1095.pfb" 1353286983 97272 e31c1319e3ff43b442c57e2c8f2acc52 ""
  "/usr/share/texmf-dist/fonts/type1/public/cm-super/sfss1200.pfb" 1353286983 95792 fb800ffa2babe7bd5fafc1817d8f1313 ""
  "/usr/share/texmf-dist/fonts/type1/public/cm-super/sfsx1440.pfb" 1353286983 148301 cb90e68db88ca98c49afbaaab3ac1967 ""
  "/usr/share/texmf-dist/fonts/type1/public/cm-super/sfsx2074.pfb" 1353286983 141339 22c9429f415447880a747152395d89a1 ""
  "/usr/share/texmf-dist/fonts/type1/public/cm-super/sftt1095.pfb" 1353286983 169670 48d12e69c9a3b23c81f6d703ccbd4554 ""
  "/usr/share/texmf-dist/tex/context/base/supp-pdf.mkii" 1353286999 71627 94eb9990bed73c364d7f53f960cc8c5b ""
  "/usr/share/texmf-dist/tex/generic/babel/babel.def" 1353286988 29228 2fe939254f4b17ac18a8c0fb8aa39dff ""
  "/usr/share/texmf-dist/tex/generic/babel/babel.sty" 1353286988 9157 414843659be58197b1510e2317ef76d9 ""
  "/usr/share/texmf-dist/tex/generic/babel/frenchb.cfg" 1353286988 777 21cc6f183782d98b5d31b34ab05b9c27 ""
  "/usr/share/texmf-dist/tex/generic/babel/frenchb.ldf" 1353286988 45616 3dd87445c986b6830638afd06d3cfbdb ""
  "/usr/share/texmf-dist/tex/generic/ifxetex/ifxetex.sty" 1353286996 1458 43ab4710dc82f3edeabecd0d099626b2 ""
  "/usr/share/texmf-dist/tex/generic/oberdiek/atbegshi.sty" 1353286996 24460 92f559a71aac869021852c227c704b38 ""
  "/usr/share/texmf-dist/tex/generic/oberdiek/gettitlestring.sty" 1353286996 8237 52810bdb4db2270e717422560a104aea ""
  "/usr/share/texmf-dist/tex/generic/oberdiek/hobsub-generic.sty" 1353286996 189108 8b3553a56c83ff61acecb36b75d817e2 ""
  "/usr/share/texmf-dist/tex/generic/oberdiek/hobsub-hyperref.sty" 1353286996 70752 45fa392800e07da61fa13446ad46b34d ""
  "/usr/share/texmf-dist/tex/generic/oberdiek/ifpdf.sty" 1353286996 7140 ece2cc23d9f20e1f53975ac167f42d3e ""
  "/usr/share/texmf-dist/tex/generic/oberdiek/infwarerr.sty" 1353286996 8253 3bdedc8409aa5d290a2339be6f09af03 ""
  "/usr/share/texmf-dist/tex/generic/oberdiek/ltxcmds.sty" 1353286996 18425 775b341047ce304520cc7c11ca41392e ""
  "/usr/share/texmf-dist/tex/latex/abstract/abstract.sty" 1353310573 5128 640a4c0ff76b3e578a4c5482af27ec14 ""
  "/usr/share/texmf-dist/tex/latex/amscls/amsthm.sty" 1353286986 11401 72b18f76ab3cc71c15213a919836506a ""
  "/usr/share/texmf-dist/tex/latex/amsfonts/amsfonts.sty" 1353286986 5548 21cc890100eeac7a6a792024ef2889eb ""
  "/usr/share/texmf-dist/tex/latex/amsfonts/amssymb.sty" 1353286986 13613 9d8ad59dafa33583045d4f2c7f2a4863 ""
  "/usr/share/texmf-dist/tex/latex/amsfonts/umsa.fd" 1353286986 955 d0043fae981c93e583f3f271f791633c ""
  "/usr/share/texmf-dist/tex/latex/amsfonts/umsb.fd" 1353286986 955 ee57f5eb74e91b35bb314e3044c12d81 ""
  "/usr/share/texmf-dist/tex/latex/amsmath/amsbsy.sty" 1353286986 3535 ce75ca6de8380293f2081dec8ab08a93 ""
  "/usr/share/texmf-dist/tex/latex/amsmath/amsgen.sty" 1353286986 5453 08b555fa01ef74ce33d74813d74c2362 ""
  "/usr/share/texmf-dist/tex/latex/amsmath/amsmath.sty" 1353286986 79756 c9b39210cd9d3168825ff6f880d43821 ""
  "/usr/share/texmf-dist/tex/latex/amsmath/amsopn.sty" 1353286986 5082 c925b14d21ef5c56597fe90e8e1686ad ""
  "/usr/share/texmf-dist/tex/latex/amsmath/amstext.sty" 1353286986 3745 bcdc4858c6f7cfeb8e957b4284216414 ""
  "/usr/share/texmf-dist/tex/latex/base/article.cls" 1353286986 20571 b8bd218bf2e18b4f5817ee643cd9c515 ""
  "/usr/share/texmf-dist/tex/latex/base/fontenc.sty" 1353286986 4435 b97063eb2f20be499e7725926af85c55 ""
  "/usr/share/texmf-dist/tex/latex/base/ifthen.sty" 1353286986 5022 2ec7815b07dc68e65542e23a180bc839 ""
  "/usr/share/texmf-dist/tex/latex/base/inputenc.sty" 1353286986 4388 1cb2ca8d423695bd22ea8d126c276f33 ""
  "/usr/share/texmf-dist/tex/latex/base/makeidx.sty" 1353286986 1803 73774dc5d3e5e39067964331f0b99649 ""
  "/usr/share/texmf-dist/tex/latex/base/omsenc.dfu" 1353286986 1868 39c80c053f689193a1ca9a83d05b2744 ""
  "/usr/share/texmf-dist/tex/latex/base/ot1enc.dfu" 1353286987 2620 9a36ef7e0369aa29d9d298a6bf19588e ""
  "/usr/share/texmf-dist/tex/latex/base/size11.clo" 1353286987 9058 640f9c40a6d912e30839a669c8a999ec ""
  "/usr/share/texmf-dist/tex/latex/base/t1cmss.fd" 1353286987 2261 3e7de62c35c129b538a1e8a251fba8f8 ""
  "/usr/share/texmf-dist/tex/latex/base/t1cmtt.fd" 1353286987 2083 a6bdb02552dfa1602e8c6cc47e0ba8cf ""
  "/usr/share/texmf-dist/tex/latex/base/t1enc.def" 1353286987 9172 67c33288b50eb57eab968f345e8befb0 ""
  "/usr/share/texmf-dist/tex/latex/base/t1enc.dfu" 1353286987 7480 2a6bcf9edfeb9ff088a3f0cf7f1a196c ""
  "/usr/share/texmf-dist/tex/latex/base/utf8.def" 1353286987 6350 d390538f995713c986118b8607d58f49 ""
  "/usr/share/texmf-dist/tex/latex/caption/caption.sty" 1353286986 64617 3e595e89cb20089970940faf5347edb4 ""
  "/usr/share/texmf-dist/tex/latex/caption/caption3.sty" 1353286986 59928 5bdbc848cc19ace34fb8f06975f2d198 ""
  "/usr/share/texmf-dist/tex/latex/carlisle/scalefnt.sty" 1353286986 1360 df2086bf924b14b72d6121fe9502fcdb ""
  "/usr/share/texmf-dist/tex/latex/cite/cite.sty" 1353286986 32577 d37d76244d26661e9ca51f1fa50cf0d1 ""
  "/usr/share/texmf-dist/tex/latex/eso-pic/eso-pic.sty" 1353286986 11442 613b1f42c35ebbd862fd65943e4aa9b2 ""
  "/usr/share/texmf-dist/tex/latex/eurosym/eurosym.sty" 1353286986 3028 8faeef64adee9b964b5e7f5e45921024 ""
  "/usr/share/texmf-dist/tex/latex/float/float.sty" 1353286986 6749 16d2656a1984957e674b149555f1ea1d ""
  "/usr/share/texmf-dist/tex/latex/graphics/graphics.sty" 1353286986 14183 42a8fc761b806986eef292369afc2988 ""
  "/usr/share/texmf-dist/tex/latex/graphics/graphicx.sty" 1353286986 7882 3bd78469d444e8d494e27cfd7ca92719 ""
  "/usr/share/texmf-dist/tex/latex/graphics/keyval.sty" 1353286986 2266 7054435e4584a41cf53b0a7ca624d0cb ""
  "/usr/share/texmf-dist/tex/latex/graphics/trig.sty" 1353286986 3153 c50e6bd54d2dd3933fc52bcf369bec4a ""
  "/usr/share/texmf-dist/tex/latex/hyperref/hpdftex.def" 1353286986 51837 247bd8424b3835ef78c236dc1e0b4aef ""
  "/usr/share/texmf-dist/tex/latex/hyperref/hyperref.sty" 1353286986 231792 5fc9dc7dd667e773a766ecc63bba7f4b ""
  "/usr/share/texmf-dist/tex/latex/hyperref/nameref.sty" 1353286986 12847 25b617d63258c4f72870c883493a3cf8 ""
  "/usr/share/texmf-dist/tex/latex/hyperref/pd1enc.def" 1353286986 14005 155ac8fad2e5dd7c2cdd130fabd96633 ""
  "/usr/share/texmf-dist/tex/latex/lastpage/lastpage.sty" 1353310574 9528 fe9475af7a71689fb335ac716aef5f7a ""
  "/usr/share/texmf-dist/tex/latex/latexconfig/color.cfg" 1353286987 802 7b8c8d72c24d795ed7720e4dfd29bff3 ""
  "/usr/share/texmf-dist/tex/latex/latexconfig/epstopdf-sys.cfg" 1353286987 678 4792914a8f45be57bb98413425e4c7af ""
  "/usr/share/texmf-dist/tex/latex/latexconfig/graphics.cfg" 1353286987 3563 d35e897cae3b8c6848f6677b73370b54 ""
  "/usr/share/texmf-dist/tex/latex/latexconfig/hyperref.cfg" 1353286987 235 6031e5765137be07eed51a510b2b8fb7 ""
  "/usr/share/texmf-dist/tex/latex/lipsum/lipsum.sty" 1353310575 101837 ad70c797c40c1d5d6739cbbec86b4a6f ""
  "/usr/share/texmf-dist/tex/latex/listings/listings.cfg" 1353286987 1745 ae6fbed3255376b850f8b4ef89faef50 ""
  "/usr/share/texmf-dist/tex/latex/listings/listings.sty" 1353286987 80175 a550732aef92a278ec9bed572025bd8e ""
  "/usr/share/texmf-dist/tex/latex/listings/lstlang1.sty" 1353286987 89800 23131e8521c9ca0a050cd6d5e609c6a0 ""
  "/usr/share/texmf-dist/tex/latex/listings/lstmisc.sty" 1353286987 76974 d9d4762e984ff3346653b91fbcf676e9 ""
  "/usr/share/texmf-dist/tex/latex/oberdiek/auxhook.sty" 1353286987 3834 707ef09f31d7d2ea47ba89974755dfe0 ""
  "/usr/share/texmf-dist/tex/latex/oberdiek/epstopdf-base.sty" 1353286987 12029 04d7fdf76e0464c23b5aa3a727952d7c ""
  "/usr/share/texmf-dist/tex/latex/oberdiek/grfext.sty" 1353286987 7075 bd0c34fbf1ae8fd1debd2a554e41b2d5 ""
  "/usr/share/texmf-dist/tex/latex/oberdiek/kvoptions.sty" 1353286987 22417 c74ff4af6a1aa2b65d1924020edbbe11 ""
  "/usr/share/texmf-dist/tex/latex/oberdiek/rerunfilecheck.sty" 1353286987 9581 1158efc648bc09d5064db5703c882159 ""
  "/usr/share/texmf-dist/tex/latex/pdfpages/pdfpages.sty" 1353286987 51227 75c4fe2d3e8337aa8c29bd9ab775419e ""
  "/usr/share/texmf-dist/tex/latex/pdfpages/pppdftex.def" 1353286987 5611 37d64537ef11dcf370ff67e7ff716c9a ""
  "/usr/share/texmf-dist/tex/latex/pdftex-def/pdftex.def" 1353286987 55368 3c8a0d99822330f2dfabc0dfb09ce897 ""
  "/usr/share/texmf-dist/tex/latex/preprint/fullpage.sty" 1353310576 2789 05b418f78b224ec872f5b11081138605 ""
  "/usr/share/texmf-dist/tex/latex/subfig/subfig.sty" 1353286987 21369 9ef165ca6df8815c92e693146a376c92 ""
  "/usr/share/texmf-dist/tex/latex/tools/calc.sty" 1353286987 10075 18f0ccff816231e9905cd2b3a482a622 ""
  "/usr/share/texmf-dist/tex/latex/tools/multicol.sty" 1353286987 26766 56c30c5bea3083b5a0d6fc2ce0063096 ""
  "/usr/share/texmf-dist/tex/latex/url/url.sty" 1353286987 21932 e3a9cf32ee9b853b42be14c2f25b873c ""
  "/usr/share/texmf-dist/tex/latex/xcolor/xcolor.sty" 1353286987 55224 a43bab84e0ac5e6efcaf9a98bde73a94 ""
  "/usr/share/texmf/web2c/texmf.cnf" 1328230870 29610 220a4f4cc0d915bf8fcbcb553dcee1ae ""
  "/var/lib/texmf/fonts/map/pdftex/updmap/pdftex.map" 1355168046 829034 4ef3cc5b82d645154e58f1697a810ac8 ""
  "/var/lib/texmf/web2c/pdftex/pdflatex.fmt" 1358000781 6913478 19cafcc214f533a32b9fe7914e2e3b8a ""
  "comment.tex" 1358161859 2246 aa40cc8917c1825bc6f563eb4a79199c ""
  "images/epl.jpg" 1354114649 13716 260061c0245f1fa5695cada01aab0bb7 ""
  "images/ucl.png" 1354114649 8867 cf72c30315437d06a9e18a49542a002c ""
  "rapport.aux" 1358161862 1286 02c76c3cc21daeecb2cf4e41ba1dac34 ""
  "rapport.bbl" 1358161154 1154 9301c3038ee9b632b593c60200baf76a "bibtex rapport"
  "rapport.out" 1358161862 49 70415dc73dfa37c09d1f27e244e7b1cf ""
  "rapport.tex" 1358160209 5609 640ce1ecc8895fe3ab319043fbc2a343 ""
  (generated)
  "rapport.aux"
  "comment.aux"
  "rapport.pdf"
  "rapport.out"
  "rapport.log"
