PWD /home/simon/workspace/ethique
INPUT /usr/share/texmf/web2c/texmf.cnf
INPUT /var/lib/texmf/web2c/pdftex/pdflatex.fmt
INPUT rapport.tex
OUTPUT rapport.log
INPUT /usr/share/texmf-dist/tex/latex/base/article.cls
INPUT /usr/share/texmf-dist/tex/latex/base/article.cls
INPUT /usr/share/texmf-dist/tex/latex/base/size11.clo
INPUT /usr/share/texmf-dist/tex/latex/base/size11.clo
INPUT /usr/share/texmf-dist/fonts/map/fontname/texfonts.map
INPUT /usr/share/texmf-dist/fonts/tfm/public/cm/cmr10.tfm
INPUT /usr/share/texmf-dist/tex/generic/babel/babel.sty
INPUT /usr/share/texmf-dist/tex/generic/babel/babel.sty
INPUT /usr/share/texmf-dist/tex/generic/babel/frenchb.ldf
INPUT /usr/share/texmf-dist/tex/generic/babel/frenchb.ldf
INPUT /usr/share/texmf-dist/tex/generic/babel/babel.def
INPUT /usr/share/texmf-dist/tex/generic/babel/frenchb.cfg
INPUT /usr/share/texmf-dist/tex/generic/babel/frenchb.cfg
INPUT /usr/share/texmf-dist/tex/latex/carlisle/scalefnt.sty
INPUT /usr/share/texmf-dist/tex/latex/carlisle/scalefnt.sty
INPUT /usr/share/texmf-dist/tex/latex/graphics/keyval.sty
INPUT /usr/share/texmf-dist/tex/latex/graphics/keyval.sty
INPUT /usr/share/texmf-dist/tex/latex/base/fontenc.sty
INPUT /usr/share/texmf-dist/tex/latex/base/fontenc.sty
INPUT /usr/share/texmf-dist/tex/latex/base/t1enc.def
INPUT /usr/share/texmf-dist/tex/latex/base/t1enc.def
INPUT /usr/share/texmf-dist/fonts/tfm/jknappen/ec/ecrm1095.tfm
INPUT /usr/share/texmf-dist/tex/latex/base/inputenc.sty
INPUT /usr/share/texmf-dist/tex/latex/base/inputenc.sty
INPUT /usr/share/texmf-dist/tex/latex/base/utf8.def
INPUT /usr/share/texmf-dist/tex/latex/base/utf8.def
INPUT /usr/share/texmf-dist/tex/latex/base/t1enc.dfu
INPUT /usr/share/texmf-dist/tex/latex/base/t1enc.dfu
INPUT /usr/share/texmf-dist/tex/latex/base/ot1enc.dfu
INPUT /usr/share/texmf-dist/tex/latex/base/ot1enc.dfu
INPUT /usr/share/texmf-dist/tex/latex/base/omsenc.dfu
INPUT /usr/share/texmf-dist/tex/latex/base/omsenc.dfu
INPUT /usr/share/texmf-dist/tex/latex/abstract/abstract.sty
INPUT /usr/share/texmf-dist/tex/latex/abstract/abstract.sty
INPUT /usr/share/texmf-dist/tex/latex/graphics/graphicx.sty
INPUT /usr/share/texmf-dist/tex/latex/graphics/graphicx.sty
INPUT /usr/share/texmf-dist/tex/latex/graphics/graphics.sty
INPUT /usr/share/texmf-dist/tex/latex/graphics/graphics.sty
INPUT /usr/share/texmf-dist/tex/latex/graphics/trig.sty
INPUT /usr/share/texmf-dist/tex/latex/graphics/trig.sty
INPUT /usr/share/texmf-dist/tex/latex/latexconfig/graphics.cfg
INPUT /usr/share/texmf-dist/tex/latex/latexconfig/graphics.cfg
INPUT /usr/share/texmf-dist/tex/latex/pdftex-def/pdftex.def
INPUT /usr/share/texmf-dist/tex/latex/pdftex-def/pdftex.def
INPUT /usr/share/texmf-dist/tex/generic/oberdiek/infwarerr.sty
INPUT /usr/share/texmf-dist/tex/generic/oberdiek/infwarerr.sty
INPUT /usr/share/texmf-dist/tex/generic/oberdiek/ltxcmds.sty
INPUT /usr/share/texmf-dist/tex/generic/oberdiek/ltxcmds.sty
INPUT /usr/share/texmf-dist/tex/latex/caption/caption.sty
INPUT /usr/share/texmf-dist/tex/latex/caption/caption.sty
INPUT /usr/share/texmf-dist/tex/latex/caption/caption3.sty
INPUT /usr/share/texmf-dist/tex/latex/caption/caption3.sty
INPUT /usr/share/texmf-dist/tex/latex/subfig/subfig.sty
INPUT /usr/share/texmf-dist/tex/latex/subfig/subfig.sty
INPUT /usr/share/texmf-dist/tex/latex/float/float.sty
INPUT /usr/share/texmf-dist/tex/latex/float/float.sty
INPUT /usr/share/texmf-dist/tex/latex/base/makeidx.sty
INPUT /usr/share/texmf-dist/tex/latex/base/makeidx.sty
INPUT /usr/share/texmf-dist/tex/latex/tools/multicol.sty
INPUT /usr/share/texmf-dist/tex/latex/tools/multicol.sty
INPUT /usr/share/texmf-dist/tex/latex/eurosym/eurosym.sty
INPUT /usr/share/texmf-dist/tex/latex/eurosym/eurosym.sty
INPUT /usr/share/texmf-dist/tex/latex/amsmath/amsmath.sty
INPUT /usr/share/texmf-dist/tex/latex/amsmath/amsmath.sty
INPUT /usr/share/texmf-dist/tex/latex/amsmath/amstext.sty
INPUT /usr/share/texmf-dist/tex/latex/amsmath/amstext.sty
INPUT /usr/share/texmf-dist/tex/latex/amsmath/amsgen.sty
INPUT /usr/share/texmf-dist/tex/latex/amsmath/amsgen.sty
INPUT /usr/share/texmf-dist/tex/latex/amsmath/amsbsy.sty
INPUT /usr/share/texmf-dist/tex/latex/amsmath/amsbsy.sty
INPUT /usr/share/texmf-dist/tex/latex/amsmath/amsopn.sty
INPUT /usr/share/texmf-dist/tex/latex/amsmath/amsopn.sty
INPUT /usr/share/texmf-dist/tex/latex/amsfonts/amssymb.sty
INPUT /usr/share/texmf-dist/tex/latex/amsfonts/amssymb.sty
INPUT /usr/share/texmf-dist/tex/latex/amsfonts/amsfonts.sty
INPUT /usr/share/texmf-dist/tex/latex/amsfonts/amsfonts.sty
INPUT /usr/share/texmf-dist/tex/latex/amscls/amsthm.sty
INPUT /usr/share/texmf-dist/tex/latex/amscls/amsthm.sty
INPUT /usr/share/texmf-dist/tex/latex/cite/cite.sty
INPUT /usr/share/texmf-dist/tex/latex/cite/cite.sty
INPUT /usr/share/texmf-dist/tex/latex/lastpage/lastpage.sty
INPUT /usr/share/texmf-dist/tex/latex/lastpage/lastpage.sty
INPUT /usr/share/texmf-dist/tex/latex/listings/listings.sty
INPUT /usr/share/texmf-dist/tex/latex/listings/listings.sty
INPUT /usr/share/texmf-dist/tex/latex/listings/lstmisc.sty
INPUT /usr/share/texmf-dist/tex/latex/listings/lstmisc.sty
INPUT /usr/share/texmf-dist/tex/latex/listings/listings.cfg
INPUT /usr/share/texmf-dist/tex/latex/listings/listings.cfg
INPUT /usr/share/texmf-dist/tex/latex/lipsum/lipsum.sty
INPUT /usr/share/texmf-dist/tex/latex/lipsum/lipsum.sty
INPUT /usr/share/texmf-dist/tex/latex/preprint/fullpage.sty
INPUT /usr/share/texmf-dist/tex/latex/preprint/fullpage.sty
INPUT /usr/share/texmf-dist/tex/latex/pdfpages/pdfpages.sty
INPUT /usr/share/texmf-dist/tex/latex/pdfpages/pdfpages.sty
INPUT /usr/share/texmf-dist/tex/latex/base/ifthen.sty
INPUT /usr/share/texmf-dist/tex/latex/base/ifthen.sty
INPUT /usr/share/texmf-dist/tex/latex/tools/calc.sty
INPUT /usr/share/texmf-dist/tex/latex/tools/calc.sty
INPUT /usr/share/texmf-dist/tex/latex/eso-pic/eso-pic.sty
INPUT /usr/share/texmf-dist/tex/latex/eso-pic/eso-pic.sty
INPUT /usr/share/texmf-dist/tex/generic/oberdiek/atbegshi.sty
INPUT /usr/share/texmf-dist/tex/generic/oberdiek/atbegshi.sty
INPUT /usr/share/texmf-dist/tex/generic/oberdiek/ifpdf.sty
INPUT /usr/share/texmf-dist/tex/generic/oberdiek/ifpdf.sty
INPUT /usr/share/texmf-dist/tex/latex/xcolor/xcolor.sty
INPUT /usr/share/texmf-dist/tex/latex/xcolor/xcolor.sty
INPUT /usr/share/texmf-dist/tex/latex/xcolor/xcolor.sty
INPUT /usr/share/texmf-dist/tex/latex/latexconfig/color.cfg
INPUT /usr/share/texmf-dist/tex/latex/latexconfig/color.cfg
INPUT /usr/share/texmf-dist/tex/latex/pdfpages/pppdftex.def
INPUT /usr/share/texmf-dist/tex/latex/pdfpages/pppdftex.def
INPUT /usr/share/texmf-dist/tex/latex/listings/lstlang1.sty
INPUT /usr/share/texmf-dist/tex/latex/listings/lstlang1.sty
INPUT /usr/share/texmf-dist/tex/latex/hyperref/hyperref.sty
INPUT /usr/share/texmf-dist/tex/latex/hyperref/hyperref.sty
INPUT /usr/share/texmf-dist/tex/generic/oberdiek/hobsub-hyperref.sty
INPUT /usr/share/texmf-dist/tex/generic/oberdiek/hobsub-hyperref.sty
INPUT /usr/share/texmf-dist/tex/generic/oberdiek/hobsub-hyperref.sty
INPUT /usr/share/texmf-dist/tex/generic/oberdiek/hobsub-generic.sty
INPUT /usr/share/texmf-dist/tex/generic/oberdiek/hobsub-generic.sty
INPUT /usr/share/texmf-dist/tex/generic/ifxetex/ifxetex.sty
INPUT /usr/share/texmf-dist/tex/generic/ifxetex/ifxetex.sty
INPUT /usr/share/texmf-dist/tex/latex/oberdiek/auxhook.sty
INPUT /usr/share/texmf-dist/tex/latex/oberdiek/auxhook.sty
INPUT /usr/share/texmf-dist/tex/latex/oberdiek/kvoptions.sty
INPUT /usr/share/texmf-dist/tex/latex/oberdiek/kvoptions.sty
INPUT /usr/share/texmf-dist/tex/latex/hyperref/pd1enc.def
INPUT /usr/share/texmf-dist/tex/latex/hyperref/pd1enc.def
INPUT /usr/share/texmf-dist/tex/latex/latexconfig/hyperref.cfg
INPUT /usr/share/texmf-dist/tex/latex/latexconfig/hyperref.cfg
INPUT /usr/share/texmf-dist/tex/latex/url/url.sty
INPUT /usr/share/texmf-dist/tex/latex/url/url.sty
INPUT /usr/share/texmf-dist/tex/latex/hyperref/hpdftex.def
INPUT /usr/share/texmf-dist/tex/latex/hyperref/hpdftex.def
INPUT /usr/share/texmf-dist/tex/latex/oberdiek/rerunfilecheck.sty
INPUT /usr/share/texmf-dist/tex/latex/oberdiek/rerunfilecheck.sty
INPUT rapport.aux
INPUT rapport.aux
OUTPUT rapport.aux
INPUT /usr/share/texmf-dist/tex/latex/base/t1cmss.fd
INPUT /usr/share/texmf-dist/tex/latex/base/t1cmss.fd
INPUT /usr/share/texmf-dist/fonts/tfm/jknappen/ec/ecss1095.tfm
INPUT /usr/share/texmf-dist/tex/context/base/supp-pdf.mkii
INPUT /usr/share/texmf-dist/tex/context/base/supp-pdf.mkii
INPUT /usr/share/texmf-dist/tex/latex/oberdiek/epstopdf-base.sty
INPUT /usr/share/texmf-dist/tex/latex/oberdiek/epstopdf-base.sty
INPUT /usr/share/texmf-dist/tex/latex/oberdiek/grfext.sty
INPUT /usr/share/texmf-dist/tex/latex/oberdiek/grfext.sty
INPUT /usr/share/texmf-dist/tex/latex/latexconfig/epstopdf-sys.cfg
INPUT /usr/share/texmf-dist/tex/latex/latexconfig/epstopdf-sys.cfg
INPUT /usr/share/texmf-dist/tex/latex/hyperref/nameref.sty
INPUT /usr/share/texmf-dist/tex/latex/hyperref/nameref.sty
INPUT /usr/share/texmf-dist/tex/generic/oberdiek/gettitlestring.sty
INPUT /usr/share/texmf-dist/tex/generic/oberdiek/gettitlestring.sty
INPUT rapport.out
INPUT rapport.out
INPUT rapport.out
INPUT rapport.out
OUTPUT rapport.pdf
INPUT ./rapport.out
INPUT ./rapport.out
OUTPUT rapport.out
INPUT images/ucl.png
INPUT ./images/ucl.png
INPUT ./images/ucl.png
INPUT /usr/share/texmf-dist/fonts/tfm/jknappen/ec/eccc1095.tfm
INPUT /usr/share/texmf-dist/fonts/tfm/jknappen/ec/eccc1728.tfm
INPUT /usr/share/texmf-dist/fonts/tfm/jknappen/ec/ecss2074.tfm
INPUT /usr/share/texmf-dist/fonts/tfm/jknappen/ec/ecsx2074.tfm
INPUT /usr/share/texmf-dist/fonts/tfm/jknappen/ec/ecss1200.tfm
INPUT /usr/share/texmf-dist/fonts/tfm/jknappen/ec/ecsi1200.tfm
INPUT /usr/share/texmf-dist/fonts/tfm/jknappen/ec/eccc1200.tfm
INPUT /usr/share/texmf-dist/fonts/tfm/public/cm/cmr8.tfm
INPUT /usr/share/texmf-dist/fonts/tfm/public/cm/cmr6.tfm
INPUT /usr/share/texmf-dist/fonts/tfm/public/cm/cmmi10.tfm
INPUT /usr/share/texmf-dist/fonts/tfm/public/cm/cmmi8.tfm
INPUT /usr/share/texmf-dist/fonts/tfm/public/cm/cmmi6.tfm
INPUT /usr/share/texmf-dist/fonts/tfm/public/cm/cmsy10.tfm
INPUT /usr/share/texmf-dist/fonts/tfm/public/cm/cmsy8.tfm
INPUT /usr/share/texmf-dist/fonts/tfm/public/cm/cmsy6.tfm
INPUT /usr/share/texmf-dist/fonts/tfm/public/cm/cmex10.tfm
INPUT /usr/share/texmf-dist/fonts/tfm/public/amsfonts/cmextra/cmex8.tfm
INPUT /usr/share/texmf-dist/fonts/tfm/public/amsfonts/cmextra/cmex7.tfm
INPUT /usr/share/texmf-dist/tex/latex/amsfonts/umsa.fd
INPUT /usr/share/texmf-dist/tex/latex/amsfonts/umsa.fd
INPUT /usr/share/texmf-dist/fonts/tfm/public/amsfonts/symbols/msam10.tfm
INPUT /usr/share/texmf-dist/fonts/tfm/public/amsfonts/symbols/msam10.tfm
INPUT /usr/share/texmf-dist/fonts/tfm/public/amsfonts/symbols/msam7.tfm
INPUT /usr/share/texmf-dist/tex/latex/amsfonts/umsb.fd
INPUT /usr/share/texmf-dist/tex/latex/amsfonts/umsb.fd
INPUT /usr/share/texmf-dist/fonts/tfm/public/amsfonts/symbols/msbm10.tfm
INPUT /usr/share/texmf-dist/fonts/tfm/public/amsfonts/symbols/msbm10.tfm
INPUT /usr/share/texmf-dist/fonts/tfm/public/amsfonts/symbols/msbm7.tfm
INPUT images/epl.jpg
INPUT ./images/epl.jpg
INPUT ./images/epl.jpg
INPUT /var/lib/texmf/fonts/map/pdftex/updmap/pdftex.map
INPUT comment.tex
INPUT comment.tex
INPUT /usr/share/texmf-dist/fonts/tfm/jknappen/ec/ecss1440.tfm
INPUT /usr/share/texmf-dist/fonts/tfm/jknappen/ec/ecsx1440.tfm
INPUT /usr/share/texmf-dist/tex/latex/base/t1cmtt.fd
INPUT /usr/share/texmf-dist/tex/latex/base/t1cmtt.fd
INPUT /usr/share/texmf-dist/fonts/tfm/jknappen/ec/ectt1095.tfm
INPUT rapport.bbl
INPUT rapport.bbl
INPUT rapport.aux
INPUT ./rapport.out
INPUT ./rapport.out
INPUT /usr/share/texmf-dist/fonts/enc/dvips/cm-super/cm-super-t1.enc
INPUT /usr/share/texmf-dist/fonts/type1/public/cm-super/sfcc1200.pfb
INPUT /usr/share/texmf-dist/fonts/type1/public/cm-super/sfcc1728.pfb
INPUT /usr/share/texmf-dist/fonts/type1/public/cm-super/sfsi1200.pfb
INPUT /usr/share/texmf-dist/fonts/type1/public/cm-super/sfss1095.pfb
INPUT /usr/share/texmf-dist/fonts/type1/public/cm-super/sfss1200.pfb
INPUT /usr/share/texmf-dist/fonts/type1/public/cm-super/sfsx1440.pfb
INPUT /usr/share/texmf-dist/fonts/type1/public/cm-super/sfsx2074.pfb
INPUT /usr/share/texmf-dist/fonts/type1/public/cm-super/sftt1095.pfb
